…
a).

Import data frame to R

``` r
migraine_data = read_excel("./Migraine.xlsx")
```

Arrange data frame by varibale Migraine

``` r
arrange(migraine_data, migraine_data$Migraine)
```

    ## # A tibble: 419 x 5
    ##    Migraine  CESD NDDIE `ABNAS memory` `ABNAS language`
    ##       <dbl> <dbl> <dbl>          <dbl>            <dbl>
    ##  1        0    42    NA              1                0
    ##  2        0    NA     6              0                0
    ##  3        0    10    11              0                0
    ##  4        0    NA    NA              1                0
    ##  5        0    23    16              1                0
    ##  6        0     6     8              1                0
    ##  7        0    NA    NA              0                0
    ##  8        0    NA    NA              2                0
    ##  9        0    NA    NA              0                0
    ## 10        0    NA    NA              4                0
    ## # ... with 409 more rows
…
